﻿BDFPF-DFPFNL UNEQUIPPED TEAMBENCH 2019
Ned Team 3
125 KG Vroom                             Victor          M    NED   57 M4   123,70   100    110                    57,51
- 70 KG Van De Wijngaard Isabel                      F   NED        40 M1   64,20    37,5   45      -50            36,57
                                                                                                                   94,08
Power Diksmuide
82,5 KG Kerwyn                           Herve           M    BEL   75 M8   81,70    95     100     102,5    105   63,91
Individuelen
145 KG Shapovalov                        Valeriy         M    BEL   39 SR   138,10   170    182,5   -185           92,25
100 KG Martiniuc                         Egor            M    BEL   35 SR   99,30    165    -175    -175           91,71
75 KG Molkens                            Tim             M    BEL   26 SR   73,60    120    127,5   135            91,06
90 KG Hemelsoet                          Erwin           M    BEL   48 M2   86,70    120    127,5   130            77,88
110 KG Karraa                            Elis            M    BEL   26 SR   110,00   140    145     -147,5         77,79
90 KG Hamidian                           Human           M    BEL   18 T3   83,80    110    115     -120           70,46
82,5 KG Abdullah                         Christian       M    BEL   20 JR   81,60    110    -120    -120           68,65
Nationaal record
